## Interface: 60000
## Title: |cff1784d1ElvUI |r|cffFFFFFFEnhancedShadows|r
## Author: Azilroka, Sortokk
## Version: 1.08
## Notes: ElvUI plugin for Enhanced Shadows
## RequiredDeps: ElvUI
## OptionalDeps: ElvUI_ExtraActionBars

EnhancedShadows.lua
